// Jest Snapshot v1, https://goo.gl/fbAQLP

exports[`MainEventsScreen test suite renders as expected 1`] = `
<EventsScreen
  ListEmptyComponent={[Function]}
  data={
    Array [
      "evt0",
      "evt1",
    ]
  }
  keyExtractor={[Function]}
  onMount={[Function]}
  onRefresh={[Function]}
  refreshing={false}
  renderItem={[Function]}
/>
`;
